module github.com/camunda/zeebe/clients/go/v8

go 1.21

require (
	github.com/docker/docker v25.0.3+incompatible
	github.com/docker/go-connections v0.5.0
	github.com/go-ozzo/ozzo-validation/v4 v4.3.0
	github.com/golang/mock v1.6.0
	github.com/google/go-cmp v0.6.0
	github.com/google/uuid v1.6.0
	github.com/mitchellh/go-homedir v1.1.0
	github.com/spf13/cobra v1.8.0
	github.com/stretchr/testify v1.8.4
	github.com/testcontainers/testcontainers-go v0.28.0
	golang.org/x/net v0.21.0
	golang.org/x/oauth2 v0.17.0
	google.golang.org/grpc v1.61.1
	google.golang.org/protobuf v1.32.0
	gopkg.in/yaml.v3 v3.0.1
)

require (
	dario.cat/mergo v1.0.0 // indirect
	github.com/Azure/go-ansiterm v0.0.0-20210617225240-d185dfc1b5a1 // indirect
	github.com/Microsoft/go-winio v0.6.1 // indirect
	github.com/Microsoft/hcsshim v0.11.4 // indirect
	github.com/asaskevich/govalidator v0.0.0-20200108200545-475eaeb16496 // indirect
	github.com/cenkalti/backoff/v4 v4.2.1 // indirect
	github.com/containerd/containerd v1.7.12 // indirect
	github.com/containerd/log v0.1.0 // indirect
	github.com/cpuguy83/dockercfg v0.3.1 // indirect
	github.com/davecgh/go-spew v1.1.1 // indirect
	github.com/distribution/reference v0.5.0 // indirect
	github.com/docker/go-units v0.5.0 // indirect
	github.com/felixge/httpsnoop v1.0.3 // indirect
	github.com/go-logr/logr v1.2.4 // indirect
	github.com/go-logr/stdr v1.2.2 // indirect
	github.com/go-ole/go-ole v1.2.6 // indirect
	github.com/gogo/protobuf v1.3.2 // indirect
	github.com/golang/protobuf v1.5.3 // indirect
	github.com/inconshreveable/mousetrap v1.1.0 // indirect
	github.com/klauspost/compress v1.16.0 // indirect
	github.com/kr/text v0.2.0 // indirect
	github.com/lufia/plan9stats v0.0.0-20211012122336-39d0f177ccd0 // indirect
	github.com/magiconair/properties v1.8.7 // indirect
	github.com/moby/patternmatcher v0.6.0 // indirect
	github.com/moby/sys/sequential v0.5.0 // indirect
	github.com/moby/sys/user v0.1.0 // indirect
	github.com/moby/term v0.5.0 // indirect
	github.com/morikuni/aec v1.0.0 // indirect
	github.com/opencontainers/go-digest v1.0.0 // indirect
	github.com/opencontainers/image-spec v1.1.0-rc5 // indirect
	github.com/pkg/errors v0.9.1 // indirect
	github.com/pmezard/go-difflib v1.0.0 // indirect
	github.com/power-devops/perfstat v0.0.0-20210106213030-5aafc221ea8c // indirect
	github.com/shirou/gopsutil/v3 v3.23.12 // indirect
	github.com/shoenig/go-m1cpu v0.1.6 // indirect
	github.com/sirupsen/logrus v1.9.3 // indirect
	github.com/spf13/pflag v1.0.5 // indirect
	github.com/tklauser/go-sysconf v0.3.12 // indirect
	github.com/tklauser/numcpus v0.6.1 // indirect
	github.com/yusufpapurcu/wmi v1.2.3 // indirect
	go.opentelemetry.io/contrib/instrumentation/net/http/otelhttp v0.45.0 // indirect
	go.opentelemetry.io/otel v1.19.0 // indirect
	go.opentelemetry.io/otel/metric v1.19.0 // indirect
	go.opentelemetry.io/otel/trace v1.19.0 // indirect
	golang.org/x/exp v0.0.0-20230510235704-dd950f8aeaea // indirect
	golang.org/x/mod v0.11.0 // indirect
	golang.org/x/sys v0.17.0 // indirect
	golang.org/x/text v0.14.0 // indirect
	golang.org/x/tools v0.10.0 // indirect
	google.golang.org/appengine v1.6.8 // indirect
	google.golang.org/genproto/googleapis/rpc v0.0.0-20231106174013-bbf56f31fb17 // indirect
)
